%YAML 1.1
%TAG !u! tag:unity3d.com,2011:
--- !u!114 &11400000
MonoBehaviour:
  m_ObjectHideFlags: 0
  m_CorrespondingSourceObject: {fileID: 0}
  m_PrefabInstance: {fileID: 0}
  m_PrefabAsset: {fileID: 0}
  m_GameObject: {fileID: 0}
  m_Enabled: 1
  m_EditorHideFlags: 0
  m_Script: {fileID: 11500000, guid: 88f25c7a7cba5f447a9c664ff8d448f9, type: 3}
  m_Name: Character1
  m_EditorClassIdentifier: 
  _ID: 1
  _Name: "\u30E6\u30CB\u30C3\u30C81"
  _MaxHP: 1000
  _MaxGage: 500
  _InitialGage: 250
  _MoveSpeed: 3
  _Shot1: {fileID: 11400000, guid: bdf449060b8700748a97839953dfd71e, type: 2}
  _Shot2: {fileID: 11400000, guid: 4e96ec1b10688e446812e5e31922d857, type: 2}
  _Shot3: {fileID: 11400000, guid: 0eb9a9c296b87c24795a0b55814e9e71, type: 2}
  _Shot4: {fileID: 11400000, guid: c2faa4e0f61fddc428403b28201fc450, type: 2}
